-----BEGIN PGP SIGNATURE-----

iQIzBAABCAAdFiEEkOFuGruL/Mx5SVPv38gT82TAxIkFAmfTZU4ACgkQ38gT82TA
xIlF9w//QXvRYFpXvLykOHKNjC3VhtSaU8k9N0iRPYGzAtBX8LXmODjF9lEJEj3K
E0NHTdYQMAbC8ruSw5RnkcqoUdYz7j2yC4DMt3oJ67oL/wnihbRyRkReZ4HcAFOc
KHLwq1+jHe5CCFQvfBpFtXHC1Hm57fbA16UQwLhAJ80uaeep3fZiqHThakaUB6LT
oVA9Afg+1HM7k7o2fqVP0iDYIpcSukJDWA1OrZMUg7naBCR6/z7AL+OiuggM48SZ
/bFC6XVszkMRkk3M/NEhhU2J/6QRZ72jnepRN7wtbQq5sc5pllp5EeUC5rlp9qbB
hAufhdPgFD/AFLM/U6xqSmgjsgW4fFuVmcJlTIeFN2q/Po7u6GLbS7dpkyTwOUaH
QQneeA3Fzwi4RU6XZuqWBQP2EDfxjn/anHgg77az5S/RbBtKwJLSW5xEBEYeNb57
8h409hWraa4ChJsnnDxFGL0ZACJxj0QO8BCJ7Z4V4ZD1wrlg9+m+85XrZtDPJtTu
3EbP4S6tkzyVXgOmY4zNj++a5/6EOXq4iiPkWluH4hscVp9mwcZMwgdLJkSRwQSC
+zdqLcJ3Z7pOTfCoi1Xb2wHnIuiENqO+exkKkSue4sXdF4LusQpuvbLtGKZu3V0E
R0pTVjzbW7hj00sVgGdexwEPyTzqJinwdl0J4J3dJ6MT5MLRJ1o=
=UjgU
-----END PGP SIGNATURE-----
